^C:\USERS\FIREM\SOURCE\REPOS\PTCG(ЗПКГ)\LAB1\PTCG_LAB2\PTCG_LAB2\DEBUG\MAIN.OBJ
/OUT:"C:\USERS\FIREM\SOURCE\REPOS\PTCG(ЗПКГ)\LAB1\PTCG_LAB2\DEBUG\PTCG_LAB2.EXE" /INCREMENTAL /ILK:"PTCG_LAB2\DEBUG\PTCG_LAB2.ILK" /NOLOGO KERNEL32.LIB USER32.LIB GDI32.LIB WINSPOOL.LIB COMDLG32.LIB ADVAPI32.LIB SHELL32.LIB OLE32.LIB OLEAUT32.LIB UUID.LIB ODBC32.LIB ODBCCP32.LIB /MANIFEST /MANIFESTUAC:"level='asInvoker' uiAccess='false'" /manifest:embed /DEBUG /PDB:"C:\USERS\FIREM\SOURCE\REPOS\PTCG(ЗПКГ)\LAB1\PTCG_LAB2\DEBUG\PTCG_LAB2.PDB" /SUBSYSTEM:CONSOLE /TLBID:1 /DYNAMICBASE /NXCOMPAT /IMPLIB:"C:\USERS\FIREM\SOURCE\REPOS\PTCG(ЗПКГ)\LAB1\PTCG_LAB2\DEBUG\PTCG_LAB2.LIB" /MACHINE:X86 PTCG_LAB2\DEBUG\MAIN.OBJ
^C:\USERS\FIREM\SOURCE\REPOS\PTCG(ЗПКГ)\PTCG_LAB2\PTCG_LAB2\DEBUG\MAIN.OBJ
/OUT:"C:\USERS\FIREM\SOURCE\REPOS\PTCG(ЗПКГ)\PTCG_LAB2\DEBUG\PTCG_LAB2.EXE" /INCREMENTAL /ILK:"PTCG_LAB2\DEBUG\PTCG_LAB2.ILK" /NOLOGO KERNEL32.LIB USER32.LIB GDI32.LIB WINSPOOL.LIB COMDLG32.LIB ADVAPI32.LIB SHELL32.LIB OLE32.LIB OLEAUT32.LIB UUID.LIB ODBC32.LIB ODBCCP32.LIB /MANIFEST /MANIFESTUAC:"level='asInvoker' uiAccess='false'" /manifest:embed /DEBUG /PDB:"C:\USERS\FIREM\SOURCE\REPOS\PTCG(ЗПКГ)\PTCG_LAB2\DEBUG\PTCG_LAB2.PDB" /SUBSYSTEM:CONSOLE /TLBID:1 /DYNAMICBASE /NXCOMPAT /IMPLIB:"C:\USERS\FIREM\SOURCE\REPOS\PTCG(ЗПКГ)\PTCG_LAB2\DEBUG\PTCG_LAB2.LIB" /MACHINE:X86 PTCG_LAB2\DEBUG\MAIN.OBJ
