^C:\USERS\FIREM\SOURCE\REPOS\PTCG(ЗПКГ)\PTCG_LAB2\PTCG_LAB2\DEBUG\MAIN.OBJ
C:\USERS\FIREM\SOURCE\REPOS\PTCG(ЗПКГ)\PTCG_LAB2\DEBUG\PTCG_LAB2.EXE
C:\USERS\FIREM\SOURCE\REPOS\PTCG(ЗПКГ)\PTCG_LAB2\DEBUG\PTCG_LAB2.PDB
