^C:\USERS\FIREM\SOURCE\REPOS\PTCG(ЗПКГ)\OPENGL\LAB4\LAB4\DEBUG\SOURSE.OBJ
C:\USERS\FIREM\SOURCE\REPOS\PTCG(ЗПКГ)\OPENGL\LAB4\DEBUG\LAB4.EXE
C:\USERS\FIREM\SOURCE\REPOS\PTCG(ЗПКГ)\OPENGL\LAB4\DEBUG\LAB4.PDB
