^C:\USERS\FIREM\SOURCE\REPOS\PTCG(ЗПКГ)\LAB1 (2)\LAB1\DEBUG\B-SPLINES-GLUT.OBJ|C:\USERS\FIREM\SOURCE\REPOS\PTCG(ЗПКГ)\LAB1 (2)\LAB1\DEBUG\B-SPLINES.OBJ|C:\USERS\FIREM\SOURCE\REPOS\PTCG(ЗПКГ)\LAB1 (2)\LAB1\DEBUG\CW1_ROTATE.OBJ|C:\USERS\FIREM\SOURCE\REPOS\PTCG(ЗПКГ)\LAB1 (2)\LAB1\DEBUG\CW_ACTUAL.OBJ|C:\USERS\FIREM\SOURCE\REPOS\PTCG(ЗПКГ)\LAB1 (2)\LAB1\DEBUG\EXAM.OBJ|C:\USERS\FIREM\SOURCE\REPOS\PTCG(ЗПКГ)\LAB1 (2)\LAB1\DEBUG\EXAM2.OBJ|C:\USERS\FIREM\SOURCE\REPOS\PTCG(ЗПКГ)\LAB1 (2)\LAB1\DEBUG\GEOMETRY.OBJ|C:\USERS\FIREM\SOURCE\REPOS\PTCG(ЗПКГ)\LAB1 (2)\LAB1\DEBUG\LAB2_READY.OBJ|C:\USERS\FIREM\SOURCE\REPOS\PTCG(ЗПКГ)\LAB1 (2)\LAB1\DEBUG\LAB2_TIMER.OBJ|C:\USERS\FIREM\SOURCE\REPOS\PTCG(ЗПКГ)\LAB1 (2)\LAB1\DEBUG\LAB3_TEAPOT.OBJ|C:\USERS\FIREM\SOURCE\REPOS\PTCG(ЗПКГ)\LAB1 (2)\LAB1\DEBUG\LAB4_CUBE.OBJ|C:\USERS\FIREM\SOURCE\REPOS\PTCG(ЗПКГ)\LAB1 (2)\LAB1\DEBUG\LAB5.OBJ|C:\USERS\FIREM\SOURCE\REPOS\PTCG(ЗПКГ)\LAB1 (2)\LAB1\DEBUG\LAB5_TEST.OBJ|C:\USERS\FIREM\SOURCE\REPOS\PTCG(ЗПКГ)\LAB1 (2)\LAB1\DEBUG\STB_IMAGE.OBJ|C:\USERS\FIREM\SOURCE\REPOS\PTCG(ЗПКГ)\LAB1 (2)\LAB1\DEBUG\STOPWATCH.OBJ|C:\USERS\FIREM\SOURCE\REPOS\PTCG(ЗПКГ)\LAB1 (2)\LAB1\DEBUG\STOPWATCHVALUES.OBJ|C:\USERS\FIREM\SOURCE\REPOS\PTCG(ЗПКГ)\LAB1 (2)\LAB1\DEBUG\SURFACE-WITH-TRIM.OBJ
C:\USERS\FIREM\SOURCE\REPOS\PTCG(ЗПКГ)\LAB1 (2)\DEPENDENCIES\FREEGLUT\LIB\WIN32\FREEGLUT.LIB
C:\PROGRAM FILES (X86)\WINDOWS KITS\10\LIB\10.0.22621.0\UM\X86\KERNEL32.LIB
C:\PROGRAM FILES (X86)\WINDOWS KITS\10\LIB\10.0.22621.0\UM\X86\USER32.LIB
C:\PROGRAM FILES (X86)\WINDOWS KITS\10\LIB\10.0.22621.0\UM\X86\GDI32.LIB
C:\PROGRAM FILES (X86)\WINDOWS KITS\10\LIB\10.0.22621.0\UM\X86\WINSPOOL.LIB
C:\PROGRAM FILES (X86)\WINDOWS KITS\10\LIB\10.0.22621.0\UM\X86\COMDLG32.LIB
C:\PROGRAM FILES (X86)\WINDOWS KITS\10\LIB\10.0.22621.0\UM\X86\ADVAPI32.LIB
C:\PROGRAM FILES (X86)\WINDOWS KITS\10\LIB\10.0.22621.0\UM\X86\SHELL32.LIB
C:\PROGRAM FILES (X86)\WINDOWS KITS\10\LIB\10.0.22621.0\UM\X86\OLE32.LIB
C:\PROGRAM FILES (X86)\WINDOWS KITS\10\LIB\10.0.22621.0\UM\X86\OLEAUT32.LIB
C:\PROGRAM FILES (X86)\WINDOWS KITS\10\LIB\10.0.22621.0\UM\X86\UUID.LIB
C:\PROGRAM FILES (X86)\WINDOWS KITS\10\LIB\10.0.22621.0\UM\X86\ODBC32.LIB
C:\PROGRAM FILES (X86)\WINDOWS KITS\10\LIB\10.0.22621.0\UM\X86\ODBCCP32.LIB
C:\USERS\FIREM\SOURCE\REPOS\PTCG(ЗПКГ)\LAB1 (2)\LAB1\DEBUG\B-SPLINES-GLUT.OBJ
C:\USERS\FIREM\SOURCE\REPOS\PTCG(ЗПКГ)\LAB1 (2)\LAB1\DEBUG\B-SPLINES.OBJ
C:\USERS\FIREM\SOURCE\REPOS\PTCG(ЗПКГ)\LAB1 (2)\LAB1\DEBUG\CW1_ROTATE.OBJ
C:\USERS\FIREM\SOURCE\REPOS\PTCG(ЗПКГ)\LAB1 (2)\LAB1\DEBUG\CW_ACTUAL.OBJ
C:\USERS\FIREM\SOURCE\REPOS\PTCG(ЗПКГ)\LAB1 (2)\LAB1\DEBUG\EXAM.OBJ
C:\USERS\FIREM\SOURCE\REPOS\PTCG(ЗПКГ)\LAB1 (2)\LAB1\DEBUG\EXAM2.OBJ
C:\USERS\FIREM\SOURCE\REPOS\PTCG(ЗПКГ)\LAB1 (2)\LAB1\DEBUG\GEOMETRY.OBJ
C:\USERS\FIREM\SOURCE\REPOS\PTCG(ЗПКГ)\LAB1 (2)\LAB1\DEBUG\LAB2_TIMER.OBJ
C:\USERS\FIREM\SOURCE\REPOS\PTCG(ЗПКГ)\LAB1 (2)\LAB1\DEBUG\LAB2_READY.OBJ
C:\USERS\FIREM\SOURCE\REPOS\PTCG(ЗПКГ)\LAB1 (2)\LAB1\DEBUG\LAB3_TEAPOT.OBJ
C:\USERS\FIREM\SOURCE\REPOS\PTCG(ЗПКГ)\LAB1 (2)\LAB1\DEBUG\LAB4_CUBE.OBJ
C:\USERS\FIREM\SOURCE\REPOS\PTCG(ЗПКГ)\LAB1 (2)\LAB1\DEBUG\LAB5.OBJ
C:\USERS\FIREM\SOURCE\REPOS\PTCG(ЗПКГ)\LAB1 (2)\LAB1\DEBUG\LAB5_TEST.OBJ
C:\USERS\FIREM\SOURCE\REPOS\PTCG(ЗПКГ)\LAB1 (2)\LAB1\DEBUG\STB_IMAGE.OBJ
C:\USERS\FIREM\SOURCE\REPOS\PTCG(ЗПКГ)\LAB1 (2)\LAB1\DEBUG\STOPWATCH.OBJ
C:\USERS\FIREM\SOURCE\REPOS\PTCG(ЗПКГ)\LAB1 (2)\LAB1\DEBUG\STOPWATCHVALUES.OBJ
C:\USERS\FIREM\SOURCE\REPOS\PTCG(ЗПКГ)\LAB1 (2)\LAB1\DEBUG\SURFACE-WITH-TRIM.OBJ
C:\WINDOWS\SYSTEM32\TZRES.DLL
C:\WINDOWS\GLOBALIZATION\SORTING\SORTDEFAULT.NLS
C:\PROGRAM FILES\MICROSOFT VISUAL STUDIO\2022\COMMUNITY\VC\TOOLS\MSVC\14.39.33519\LIB\X86\MSVCRTD.LIB
C:\PROGRAM FILES\MICROSOFT VISUAL STUDIO\2022\COMMUNITY\VC\TOOLS\MSVC\14.39.33519\LIB\X86\OLDNAMES.LIB
C:\PROGRAM FILES (X86)\WINDOWS KITS\10\LIB\10.0.22621.0\UM\X86\GLU32.LIB
C:\PROGRAM FILES (X86)\WINDOWS KITS\10\LIB\10.0.22621.0\UM\X86\OPENGL32.LIB
C:\PROGRAM FILES (X86)\WINDOWS KITS\10\LIB\10.0.22621.0\UM\X86\WINMM.LIB
C:\PROGRAM FILES\MICROSOFT VISUAL STUDIO\2022\COMMUNITY\VC\TOOLS\MSVC\14.39.33519\LIB\X86\MSVCPRTD.LIB
C:\PROGRAM FILES\MICROSOFT VISUAL STUDIO\2022\COMMUNITY\VC\TOOLS\MSVC\14.39.33519\LIB\X86\VCRUNTIMED.LIB
C:\PROGRAM FILES (X86)\WINDOWS KITS\10\LIB\10.0.22621.0\UCRT\X86\UCRTD.LIB
C:\PROGRAM FILES\MICROSOFT VISUAL STUDIO\2022\COMMUNITY\VC\TOOLS\MSVC\14.39.33519\BIN\HOSTX86\X86\CVTRES.EXE
